; Engine configuration file.
; It's best edited using the editor UI and not directly,
; since the parameters that go here are not all obvious.
;
; Format:
;   [section] ; section goes between []
;   param=value ; assign values to parameters

config_version=5

[application]

config/name="String Demo - Begin with, End with"
config/tags=PackedStringArray("string")
run/main_scene="res://main.tscn"
config/features=PackedStringArray("4.2")
boot_splash/show_image=false
config/icon="res://icon.svg"

[display]

window/size/viewport_width=720
window/size/viewport_height=400

[filesystem]

import/blender/enabled=false

[physics]

common/enable_pause_aware_picking=true

[rendering]

renderer/rendering_method="gl_compatibility"
quality/driver/driver_name="GLES2"
vram_compression/import_etc=true
